<svg xmlns="http://www.w3.org/2000/svg" xmlns:xlink="http://www.w3.org/1999/xlink" width="332" height="62" viewBox="0 0 332 62">
  <defs>
    <filter id="Rectángulo_1582" x="0" y="0" width="332" height="62" filterUnits="userSpaceOnUse">
      <feOffset dx="3" dy="4" input="SourceAlpha"/>
      <feGaussianBlur stdDeviation="3" result="blur"/>
      <feFlood flood-opacity="0.161"/>
      <feComposite operator="in" in2="blur"/>
      <feComposite in="SourceGraphic"/>
    </filter>
  </defs>
  <g id="Grupo_3319" data-name="Grupo 3319" transform="translate(-1438 -628)">
    <g id="Grupo_3100" data-name="Grupo 3100" transform="translate(1444 632.5)">
      <g transform="matrix(1, 0, 0, 1, -6, -4.5)" filter="url(#Rectángulo_1582)">
        <rect id="Rectángulo_1582-2" data-name="Rectángulo 1582" width="314" height="44" rx="4" transform="translate(6 5)" fill="#ed1c24"/>
      </g>
    </g>
    <text id="ADMINISTRAR_EQUIPO" data-name="ADMINISTRAR EQUIPO" transform="translate(1477 643)" fill="#fff" font-size="20" font-family="OpenSans-Bold, Open Sans" font-weight="700"><tspan x="13.353" y="21">ADMINISTRAR EQUIPO</tspan></text>
  </g>
</svg>
