<svg xmlns="http://www.w3.org/2000/svg" xmlns:xlink="http://www.w3.org/1999/xlink" width="336" height="93" viewBox="0 0 336 93">
  <defs>
    <filter id="Rectángulo_1582" x="0" y="0" width="336" height="93" filterUnits="userSpaceOnUse">
      <feOffset dx="3" dy="4" input="SourceAlpha"/>
      <feGaussianBlur stdDeviation="3" result="blur"/>
      <feFlood flood-opacity="0.161"/>
      <feComposite operator="in" in2="blur"/>
      <feComposite in="SourceGraphic"/>
    </filter>
  </defs>
  <g id="Grupo_3316" data-name="Grupo 3316" transform="translate(-1438 -505)">
    <g id="Grupo_3315" data-name="Grupo 3315" transform="translate(1444 510)">
      <g transform="matrix(1, 0, 0, 1, -6, -5)" filter="url(#Rectángulo_1582)">
        <rect id="Rectángulo_1582-2" data-name="Rectángulo 1582" width="318" height="75" rx="4" transform="translate(6 5)" fill="#ed1c24"/>
      </g>
    </g>
    <text id="VER_TITULARES_Y_COTITULARES" data-name="VER TITULARES 
Y COTITULARES" transform="translate(1477 520)" fill="#fff" font-size="20" font-family="OpenSans-Bold, Open Sans" font-weight="700"><tspan x="52.991" y="21">VER TITULARES </tspan><tspan x="51.121" y="48">Y COTITULARES</tspan></text>
  </g>
</svg>
