<svg xmlns="http://www.w3.org/2000/svg" width="31.475" height="27.821" viewBox="0 0 29.66 27.67">
    <defs><style>.cls-1{fill:#d1d3d4;}</style></defs>
    <title>Certificado Vinculados</title>
    <g id="Capa_2" data-name="Capa 2">
    <g id="Capa_1-2" data-name="Capa 1">
    <g id="Grupo_1037" data-name="Grupo 1037">
    <path id="Trazado_38" data-name="Trazado 38" class="cls-1" d="M.26,27.66A11.61,11.61,0,0,1,2.61,17.9a10.84,10.84,0,0,1,18,1.44,12.12,12.12,0,0,1,1.51,7.82c-.06.5-.33.51-.7.51q-4.52,0-9,0H.26Z"/>
    <path id="Trazado_39" data-name="Trazado 39" class="cls-1" d="M11.16,0A6.35,6.35,0,1,1,4.77,6.31,6.34,6.34,0,0,1,11.16,0Z"/>
    <path id="Trazado_40" data-name="Trazado 40" class="cls-1" d="M15.21,13.3a8,8,0,0,1,6.59-2.18,9,9,0,0,1,7.79,10.09l0,.21c-.06.4-.18.6-.64.6-1.84,0-3.68,0-5.51,0a.78.78,0,0,1-.62-.43,12.74,12.74,0,0,0-7.38-8.12Z"/>
    <path id="Trazado_41" data-name="Trazado 41" class="cls-1" d="M17.19,2A4.91,4.91,0,0,1,22.46.45a5,5,0,0,1,3.41,4.26,4.91,4.91,0,0,1-2.64,4.9,4.77,4.77,0,0,1-4.84-.15.64.64,0,0,1-.25-.57C18.88,5.94,18.71,4.67,17.19,2Z"/>
    </g></g></g></svg>